HTG_vignette
…
#> 8 uncharacterized_cell         <htest>      0.0975  
#> [32mPerforming parametric tests for EPIC[0m
#> # A tibble: 8 × 3
#>   Cell_Type                    Test   p.value
#>   <chr>                        <chr>    <dbl>
#> 1 B_cell                       t-test  0.0810
#> 2 Cancer_associated_fibroblast t-test  0.464 
#> 3 T_cell_CD4+                  t-test  0.755 
#> 4 T_cell_CD8+                  t-test  0.188 
#> 5 Endothelial_cell             t-test  0.489 
#> 6 Macrophage                   t-test  0.893 
#> 7 NK_cell                      t-test  0.726 
#> 8 uncharacterized_cell         t-test  0.542 
#> [32mPerforming Shapiro-Wilk test for xcell[0m
#> # A tibble: 39 × 3
#>    Cell_Type                    shapiro_test    p.value
#>    <chr>                        <list>            <dbl>
#>  1 B_cell                       <htest>      0.493     
#>  2 B_cell_memory                <htest>      0.179     
#>  3 B_cell_naive                 <htest>      0.105     
#>  4 B_cell_plasma                <htest>      0.0105    
#>  5 Cancer_associated_fibroblast <htest>      0.180     
#>  6 Class-switched_memory_B_cell <htest>      0.200     
#>  7 Common_lymphoid_progenitor   <htest>      0.0147    
#>  8 Common_myeloid_progenitor    <htest>      0.00000830
#>  9 Endothelial_cell             <htest>      0.00525   
#> 10 Eosinophil                   <htest>      0.340     
#> # ℹ 29 more rows
#> [32mPerforming parametric tests for xcell[0m
#> # A tibble: 39 × 3
#>    Cell_Type                        Test   p.value
#>    <chr>                            <chr>    <dbl>
#>  1 Myeloid_dendritic_cell_activated t-test  0.308 
#>  2 B_cell                           t-test  0.0483
#>  3 T_cell_CD4+_memory               t-test  0.219 
#>  4 T_cell_CD4+_naive                t-test  0.196 
#>  5 T_cell_CD4+_(non-regulatory)     t-test  0.391 
#>  6 T_cell_CD4+_central_memory       t-test  0.760 
#>  7 T_cell_CD4+_effector_memory      t-test  0.182 
#>  8 T_cell_CD8+_naive                t-test  0.170 
#>  9 T_cell_CD8+                      t-test  0.0164
#> 10 T_cell_CD8+_central_memory       t-test  0.0148
#> # ℹ 29 more rows
…
#> 8 uncharacterized_cell         <htest>      0.0975  
#> [32mPerforming parametric tests for EPIC[0m
#> # A tibble: 8 × 3
#>   Cell_Type                    Test   p.value
#>   <chr>                        <chr>    <dbl>
#> 1 B_cell                       t-test  0.0810
#> 2 Cancer_associated_fibroblast t-test  0.464 
#> 3 T_cell_CD4+                  t-test  0.755 
#> 4 T_cell_CD8+                  t-test  0.188 
#> 5 Endothelial_cell             t-test  0.489 
#> 6 Macrophage                   t-test  0.893 
#> 7 NK_cell                      t-test  0.726 
#> 8 uncharacterized_cell         t-test  0.542 
#> [32mPerforming Shapiro-Wilk test for xcell[0m
#> # A tibble: 39 × 3
#>    Cell_Type                    shapiro_test    p.value
#>    <chr>                        <list>            <dbl>
#>  1 B_cell                       <htest>      0.493     
#>  2 B_cell_memory                <htest>      0.179     
#>  3 B_cell_naive                 <htest>      0.105     
#>  4 B_cell_plasma                <htest>      0.0105    
#>  5 Cancer_associated_fibroblast <htest>      0.180     
#>  6 Class-switched_memory_B_cell <htest>      0.200     
#>  7 Common_lymphoid_progenitor   <htest>      0.0147    
#>  8 Common_myeloid_progenitor    <htest>      0.00000830
#>  9 Endothelial_cell             <htest>      0.00525   
#> 10 Eosinophil                   <htest>      0.340     
#> # ℹ 29 more rows
#> [32mPerforming parametric tests for xcell[0m
#> # A tibble: 39 × 3
#>    Cell_Type                        Test   p.value
#>    <chr>                            <chr>    <dbl>
#>  1 Myeloid_dendritic_cell_activated t-test  0.308 
#>  2 B_cell                           t-test  0.0483
#>  3 T_cell_CD4+_memory               t-test  0.219 
#>  4 T_cell_CD4+_naive                t-test  0.196 
#>  5 T_cell_CD4+_(non-regulatory)     t-test  0.391 
#>  6 T_cell_CD4+_central_memory       t-test  0.760 
#>  7 T_cell_CD4+_effector_memory      t-test  0.182 
#>  8 T_cell_CD8+_naive                t-test  0.170 
#>  9 T_cell_CD8+                      t-test  0.0164
#> 10 T_cell_CD8+_central_memory       t-test  0.0148
#> # ℹ 29 more rows
…
#> 8 uncharacterized_cell         <htest>      0.0134     
#> [32mPerforming parametric tests for EPIC[0m
#> # A tibble: 8 × 3
#>   Cell_Type                    Test   p.value
#>   <chr>                        <chr>    <dbl>
#> 1 B_cell                       t-test  0.0886
#> 2 Cancer_associated_fibroblast t-test  0.969 
#> 3 T_cell_CD4+                  t-test  0.736 
#> 4 T_cell_CD8+                  t-test  0.344 
#> 5 Endothelial_cell             t-test  0.488 
#> 6 Macrophage                   t-test  0.518 
#> 7 NK_cell                      t-test  0.608 
#> 8 uncharacterized_cell         t-test  0.177 
#> [32mPerforming Shapiro-Wilk test for xcell[0m
#> # A tibble: 39 × 3
#>    Cell_Type                    shapiro_test     p.value
#>    <chr>                        <list>             <dbl>
#>  1 B_cell                       <htest>      0.0700     
#>  2 B_cell_memory                <htest>      0.103      
#>  3 B_cell_naive                 <htest>      0.00416    
#>  4 B_cell_plasma                <htest>      0.0138     
#>  5 Cancer_associated_fibroblast <htest>      0.00000712 
#>  6 Class-switched_memory_B_cell <htest>      0.108      
#>  7 Common_lymphoid_progenitor   <htest>      0.0175     
#>  8 Common_myeloid_progenitor    <htest>      0.000000149
#>  9 Endothelial_cell             <htest>      0.000190   
#> 10 Eosinophil                   <htest>      0.0000267  
#> # ℹ 29 more rows
#> [32mPerforming parametric tests for xcell[0m
#> # A tibble: 39 × 3
#>    Cell_Type                        Test   p.value
#>    <chr>                            <chr>    <dbl>
#>  1 Myeloid_dendritic_cell_activated t-test 0.261  
#>  2 B_cell                           t-test 0.0117 
#>  3 T_cell_CD4+_memory               t-test 0.0824 
#>  4 T_cell_CD4+_naive                t-test 0.138  
#>  5 T_cell_CD4+_(non-regulatory)     t-test 0.391  
#>  6 T_cell_CD4+_central_memory       t-test 0.718  
#>  7 T_cell_CD4+_effector_memory      t-test 0.221  
#>  8 T_cell_CD8+_naive                t-test 0.0158 
#>  9 T_cell_CD8+                      t-test 0.00620
#> 10 T_cell_CD8+_central_memory       t-test 0.00861
#> # ℹ 29 more rows
…
#> 8 uncharacterized_cell         <htest>      0.0134     
#> [32mPerforming parametric tests for EPIC[0m
#> # A tibble: 8 × 3
#>   Cell_Type                    Test   p.value
#>   <chr>                        <chr>    <dbl>
#> 1 B_cell                       t-test  0.0886
#> 2 Cancer_associated_fibroblast t-test  0.969 
#> 3 T_cell_CD4+                  t-test  0.736 
#> 4 T_cell_CD8+                  t-test  0.344 
#> 5 Endothelial_cell             t-test  0.488 
#> 6 Macrophage                   t-test  0.518 
#> 7 NK_cell                      t-test  0.608 
#> 8 uncharacterized_cell         t-test  0.177 
#> [32mPerforming Shapiro-Wilk test for xcell[0m
#> # A tibble: 39 × 3
#>    Cell_Type                    shapiro_test     p.value
#>    <chr>                        <list>             <dbl>
#>  1 B_cell                       <htest>      0.0700     
#>  2 B_cell_memory                <htest>      0.103      
#>  3 B_cell_naive                 <htest>      0.00416    
#>  4 B_cell_plasma                <htest>      0.0138     
#>  5 Cancer_associated_fibroblast <htest>      0.00000712 
#>  6 Class-switched_memory_B_cell <htest>      0.108      
#>  7 Common_lymphoid_progenitor   <htest>      0.0175     
#>  8 Common_myeloid_progenitor    <htest>      0.000000149
#>  9 Endothelial_cell             <htest>      0.000190   
#> 10 Eosinophil                   <htest>      0.0000267  
#> # ℹ 29 more rows
#> [32mPerforming parametric tests for xcell[0m
#> # A tibble: 39 × 3
#>    Cell_Type                        Test   p.value
#>    <chr>                            <chr>    <dbl>
#>  1 Myeloid_dendritic_cell_activated t-test 0.261  
#>  2 B_cell                           t-test 0.0117 
#>  3 T_cell_CD4+_memory               t-test 0.0824 
#>  4 T_cell_CD4+_naive                t-test 0.138  
#>  5 T_cell_CD4+_(non-regulatory)     t-test 0.391  
#>  6 T_cell_CD4+_central_memory       t-test 0.718  
#>  7 T_cell_CD4+_effector_memory      t-test 0.221  
#>  8 T_cell_CD8+_naive                t-test 0.0158 
#>  9 T_cell_CD8+                      t-test 0.00620
#> 10 T_cell_CD8+_central_memory       t-test 0.00861
#> # ℹ 29 more rows
…
