HTG_vignette
…
#> 8 uncharacterized_cell         <htest>      0.116     
#> [32mPerforming parametric tests for EPIC[0m
#> # A tibble: 8 × 3
#>   Cell_Type                    Test   p.value
#>   <chr>                        <chr>    <dbl>
#> 1 B_cell                       t-test  0.0806
#> 2 Cancer_associated_fibroblast t-test  0.453 
#> 3 T_cell_CD4+                  t-test  0.761 
#> 4 T_cell_CD8+                  t-test  0.389 
#> 5 Endothelial_cell             t-test  0.590 
#> 6 Macrophage                   t-test  0.837 
#> 7 NK_cell                      t-test  0.745 
#> 8 uncharacterized_cell         t-test  0.528 
#> [32mPerforming Shapiro-Wilk test for xcell[0m
#> # A tibble: 39 × 3
#>    Cell_Type                    shapiro_test    p.value
#>    <chr>                        <list>            <dbl>
#>  1 B_cell                       <htest>      0.494     
#>  2 B_cell_memory                <htest>      0.180     
#>  3 B_cell_naive                 <htest>      0.108     
#>  4 B_cell_plasma                <htest>      0.0104    
#>  5 Cancer_associated_fibroblast <htest>      0.128     
#>  6 Class-switched_memory_B_cell <htest>      0.200     
#>  7 Common_lymphoid_progenitor   <htest>      0.0145    
#>  8 Common_myeloid_progenitor    <htest>      0.00000811
#>  9 Endothelial_cell             <htest>      0.00539   
#> 10 Eosinophil                   <htest>      0.0443    
#> # ℹ 29 more rows
#> [32mPerforming parametric tests for xcell[0m
#> # A tibble: 39 × 3
#>    Cell_Type                        Test   p.value
#>    <chr>                            <chr>    <dbl>
#>  1 Myeloid_dendritic_cell_activated t-test  0.198 
#>  2 B_cell                           t-test  0.0484
#>  3 T_cell_CD4+_memory               t-test  0.220 
#>  4 T_cell_CD4+_naive                t-test  0.185 
#>  5 T_cell_CD4+_(non-regulatory)     t-test  0.391 
#>  6 T_cell_CD4+_central_memory       t-test  0.776 
#>  7 T_cell_CD4+_effector_memory      t-test  0.182 
#>  8 T_cell_CD8+_naive                t-test  0.171 
#>  9 T_cell_CD8+                      t-test  0.0164
#> 10 T_cell_CD8+_central_memory       t-test  0.0146
#> # ℹ 29 more rows
…
#> 8 uncharacterized_cell         <htest>      0.116     
#> [32mPerforming parametric tests for EPIC[0m
#> # A tibble: 8 × 3
#>   Cell_Type                    Test   p.value
#>   <chr>                        <chr>    <dbl>
#> 1 B_cell                       t-test  0.0806
#> 2 Cancer_associated_fibroblast t-test  0.453 
#> 3 T_cell_CD4+                  t-test  0.761 
#> 4 T_cell_CD8+                  t-test  0.389 
#> 5 Endothelial_cell             t-test  0.590 
#> 6 Macrophage                   t-test  0.837 
#> 7 NK_cell                      t-test  0.745 
#> 8 uncharacterized_cell         t-test  0.528 
#> [32mPerforming Shapiro-Wilk test for xcell[0m
#> # A tibble: 39 × 3
#>    Cell_Type                    shapiro_test    p.value
#>    <chr>                        <list>            <dbl>
#>  1 B_cell                       <htest>      0.494     
#>  2 B_cell_memory                <htest>      0.180     
#>  3 B_cell_naive                 <htest>      0.108     
#>  4 B_cell_plasma                <htest>      0.0104    
#>  5 Cancer_associated_fibroblast <htest>      0.128     
#>  6 Class-switched_memory_B_cell <htest>      0.200     
#>  7 Common_lymphoid_progenitor   <htest>      0.0145    
#>  8 Common_myeloid_progenitor    <htest>      0.00000811
#>  9 Endothelial_cell             <htest>      0.00539   
#> 10 Eosinophil                   <htest>      0.0443    
#> # ℹ 29 more rows
#> [32mPerforming parametric tests for xcell[0m
#> # A tibble: 39 × 3
#>    Cell_Type                        Test   p.value
#>    <chr>                            <chr>    <dbl>
#>  1 Myeloid_dendritic_cell_activated t-test  0.198 
#>  2 B_cell                           t-test  0.0484
#>  3 T_cell_CD4+_memory               t-test  0.220 
#>  4 T_cell_CD4+_naive                t-test  0.185 
#>  5 T_cell_CD4+_(non-regulatory)     t-test  0.391 
#>  6 T_cell_CD4+_central_memory       t-test  0.776 
#>  7 T_cell_CD4+_effector_memory      t-test  0.182 
#>  8 T_cell_CD8+_naive                t-test  0.171 
#>  9 T_cell_CD8+                      t-test  0.0164
#> 10 T_cell_CD8+_central_memory       t-test  0.0146
#> # ℹ 29 more rows
…
#> 8 uncharacterized_cell         <htest>      0.0177     
#> [32mPerforming parametric tests for EPIC[0m
#> # A tibble: 8 × 3
#>   Cell_Type                    Test   p.value
#>   <chr>                        <chr>    <dbl>
#> 1 B_cell                       t-test  0.0879
#> 2 Cancer_associated_fibroblast t-test  0.998 
#> 3 T_cell_CD4+                  t-test  0.726 
#> 4 T_cell_CD8+                  t-test  0.300 
#> 5 Endothelial_cell             t-test  0.493 
#> 6 Macrophage                   t-test  0.489 
#> 7 NK_cell                      t-test  0.627 
#> 8 uncharacterized_cell         t-test  0.164 
#> [32mPerforming Shapiro-Wilk test for xcell[0m
#> # A tibble: 39 × 3
#>    Cell_Type                    shapiro_test     p.value
#>    <chr>                        <list>             <dbl>
#>  1 B_cell                       <htest>      0.0703     
#>  2 B_cell_memory                <htest>      0.0999     
#>  3 B_cell_naive                 <htest>      0.00428    
#>  4 B_cell_plasma                <htest>      0.0141     
#>  5 Cancer_associated_fibroblast <htest>      0.00000117 
#>  6 Class-switched_memory_B_cell <htest>      0.107      
#>  7 Common_lymphoid_progenitor   <htest>      0.0184     
#>  8 Common_myeloid_progenitor    <htest>      0.000000151
#>  9 Endothelial_cell             <htest>      0.000189   
#> 10 Eosinophil                   <htest>      0.0000242  
#> # ℹ 29 more rows
#> [32mPerforming parametric tests for xcell[0m
#> # A tibble: 39 × 3
#>    Cell_Type                        Test   p.value
#>    <chr>                            <chr>    <dbl>
#>  1 Myeloid_dendritic_cell_activated t-test 0.247  
#>  2 B_cell                           t-test 0.0116 
#>  3 T_cell_CD4+_memory               t-test 0.0826 
#>  4 T_cell_CD4+_naive                t-test 0.142  
#>  5 T_cell_CD4+_(non-regulatory)     t-test 0.391  
#>  6 T_cell_CD4+_central_memory       t-test 0.656  
#>  7 T_cell_CD4+_effector_memory      t-test 0.221  
#>  8 T_cell_CD8+_naive                t-test 0.0160 
#>  9 T_cell_CD8+                      t-test 0.00677
#> 10 T_cell_CD8+_central_memory       t-test 0.00848
#> # ℹ 29 more rows
…
#> 8 uncharacterized_cell         <htest>      0.0177     
#> [32mPerforming parametric tests for EPIC[0m
#> # A tibble: 8 × 3
#>   Cell_Type                    Test   p.value
#>   <chr>                        <chr>    <dbl>
#> 1 B_cell                       t-test  0.0879
#> 2 Cancer_associated_fibroblast t-test  0.998 
#> 3 T_cell_CD4+                  t-test  0.726 
#> 4 T_cell_CD8+                  t-test  0.300 
#> 5 Endothelial_cell             t-test  0.493 
#> 6 Macrophage                   t-test  0.489 
#> 7 NK_cell                      t-test  0.627 
#> 8 uncharacterized_cell         t-test  0.164 
#> [32mPerforming Shapiro-Wilk test for xcell[0m
#> # A tibble: 39 × 3
#>    Cell_Type                    shapiro_test     p.value
#>    <chr>                        <list>             <dbl>
#>  1 B_cell                       <htest>      0.0703     
#>  2 B_cell_memory                <htest>      0.0999     
#>  3 B_cell_naive                 <htest>      0.00428    
#>  4 B_cell_plasma                <htest>      0.0141     
#>  5 Cancer_associated_fibroblast <htest>      0.00000117 
#>  6 Class-switched_memory_B_cell <htest>      0.107      
#>  7 Common_lymphoid_progenitor   <htest>      0.0184     
#>  8 Common_myeloid_progenitor    <htest>      0.000000151
#>  9 Endothelial_cell             <htest>      0.000189   
#> 10 Eosinophil                   <htest>      0.0000242  
#> # ℹ 29 more rows
#> [32mPerforming parametric tests for xcell[0m
#> # A tibble: 39 × 3
#>    Cell_Type                        Test   p.value
#>    <chr>                            <chr>    <dbl>
#>  1 Myeloid_dendritic_cell_activated t-test 0.247  
#>  2 B_cell                           t-test 0.0116 
#>  3 T_cell_CD4+_memory               t-test 0.0826 
#>  4 T_cell_CD4+_naive                t-test 0.142  
#>  5 T_cell_CD4+_(non-regulatory)     t-test 0.391  
#>  6 T_cell_CD4+_central_memory       t-test 0.656  
#>  7 T_cell_CD4+_effector_memory      t-test 0.221  
#>  8 T_cell_CD8+_naive                t-test 0.0160 
#>  9 T_cell_CD8+                      t-test 0.00677
#> 10 T_cell_CD8+_central_memory       t-test 0.00848
#> # ℹ 29 more rows
…
